<?xml version="1.0" encoding="utf-8"?>
<!-- Generator: Adobe Illustrator 15.1.0, SVG Export Plug-In . SVG Version: 6.00 Build 0)  -->
<!DOCTYPE svg PUBLIC "-//W3C//DTD SVG 1.1//EN" "http://www.w3.org/Graphics/SVG/1.1/DTD/svg11.dtd">
<svg version="1.1" id="Warstwa_1" xmlns="http://www.w3.org/2000/svg" xmlns:xlink="http://www.w3.org/1999/xlink" x="0px" y="0px"
	 width="283.46px" height="283.46px" viewBox="0 0 283.46 283.46" enable-background="new 0 0 283.46 283.46" xml:space="preserve">
<g>
	<path d="M98.595,147.194c-0.36,0-0.633,0.662-0.633,1.146c0,0.782,0.272,1.476,0.784,1.988c0.361-0.754,0.513-1.536,0.513-2.14
		C99.258,147.677,99.077,147.194,98.595,147.194z"/>
	<path d="M172.44,144.363c-0.481,0-1.445,0.301-1.445,0.301c0,0.934,0.603,1.837,1.416,2.711c0.542-0.603,1.204-1.446,1.204-2.078
		C173.615,144.814,173.315,144.363,172.44,144.363z"/>
	<path d="M120.798,160.992c0,0.874,1.234,1.326,1.987,1.326c1.055,0,1.9-0.994,2.563-2.471
		C122.484,160.42,120.798,160.27,120.798,160.992z"/>
	<path d="M115.224,137.945c0-0.572-0.241-1.054-0.723-1.054c-1.024,0-2.802,1.566-4.218,4.217
		C112.692,140.687,115.224,139.663,115.224,137.945z"/>
	<path d="M160.512,145.356c0-0.451-0.301-0.753-0.934-0.753c-1.205,0-1.868,1.747-2.169,3.646
		C159.097,147.134,160.512,146.592,160.512,145.356z"/>
	<path d="M244.641,131.371c-3.352-2.998-8.141-3.368-11.838-1.249c0.452-4.563,0.84-8.663,1.137-11.877
		c0.485-5.261-3.137-10.017-8.336-10.949c-4.494-0.808-8.883,1.482-10.872,5.417c0.408-4.976-2.896-9.604-7.882-10.739
		c-5.388-1.227-10.771,2.072-12.124,7.431c-0.349,1.387-0.841,2.966-1.451,4.703c0.807-5.055,1.305-8.357,1.391-8.938
		c0.812-5.404-2.792-10.483-8.16-11.503c-4.75-0.901-9.378,1.656-11.234,5.944c0.165-1.028,0.313-1.966,0.44-2.801
		c0.722-4.707,1.243-8.108-1.809-11.721c-2.455-2.907-6.33-4.199-10.04-3.354c-3.794,0.867-6.656,3.704-7.658,7.589
		c-0.364,1.398-1.777,5.082-3.981,10.475c0.478-4.229,0.956-8.67,1.434-13.331c0.573-5.589-3.492-10.584-9.082-11.158
		c-5.583-0.569-10.584,3.493-11.158,9.082c-0.001,0.013-0.003,0.031-0.004,0.044c-0.384,3.702-1.444,8.302-3.005,13.512
		c-0.394-4.733-4.031-8.599-8.789-9.236c-4.952-0.662-9.644,2.362-11.087,7.139c-0.999,3.302-2.393,7.252-4.089,11.636
		c0.804-7.791-0.132-11.264-1.27-13.825c-1.767-3.975-5.862-6.39-10.197-6.002c-4.333,0.385-7.942,3.482-8.979,7.707
		c-1.543,6.283-6.027,17.179-11.372,28.542c0.045-2,0.037-3.864-0.031-5.556c-0.198-4.924-3.897-8.998-8.779-9.67
		c-4.88-0.668-9.543,2.254-11.063,6.941c-3.645,11.241-6.534,16.302-10.533,23.307c-2.234,3.914-4.767,8.35-7.747,14.441
		c-2.469,5.047-0.378,11.14,4.668,13.608c2.387,1.167,5.006,1.316,7.365,0.614c-0.197,0.886-0.398,1.752-0.6,2.596
		c-1.035,4.314,0.845,8.802,4.646,11.09c3.801,2.288,8.646,1.849,11.974-1.085c0.401-0.354,0.815-0.749,1.238-1.181
		c-1.024,3.025-2.1,6.169-3.227,9.431l-0.312,0.904c-1.556,4.507,0.227,9.49,4.29,11.987c4.063,2.496,9.314,1.836,12.633-1.59
		c3.03-3.127,6.302-7.369,9.679-12.367c-1.457,4.884-2.16,7.616-2.374,9.515c-0.546,4.843,2.419,9.392,7.069,10.848
		c4.65,1.457,9.68-0.589,11.994-4.878c0.41-0.761,2.896-5.385,6.542-12.472c-0.544,1.725-1.038,3.557-1.457,5.586
		c-1.049,5.086,1.9,10.145,6.842,11.738c1.034,0.333,2.086,0.492,3.122,0.492c3.917,0,7.613-2.275,9.288-6.024
		c1.291-2.886,3.506-7.851,6.288-14.114c-0.207,3.692,1.712,6.305,2.451,7.164c2.5,2.909,6.428,4.166,10.152,3.249
		c4.289-1.057,5.893-3.719,7.828-7.414c0.022,4.05,2.48,7.865,6.483,9.424c5.205,2.029,11.063-0.521,13.135-5.693
		c0.527-1.196,3.233-6.25,5.851-11.138c0.058-0.107,0.115-0.216,0.173-0.323l-0.105,1.579c-0.318,4.72,2.658,9.035,7.182,10.415
		c4.523,1.381,9.401-0.54,11.771-4.632c0.288-0.497,2.386-4.131,5.417-9.694c1.044,2.778,3.27,4.887,5.809,5.882
		c4.522,1.772,10.701,0.307,13.245-5.899c4.749-11.591,12.475-26.939,19.911-35.255
		C249.187,141.547,248.828,135.116,244.641,131.371z M182.274,132.282c1.296,0,2.229,2.501,2.229,3.254
		c0,2.47-2.019,3.434-3.586,3.434c0,0-0.813-1.235-0.813-2.892C180.105,134.963,180.949,132.282,182.274,132.282z M69.495,156.835
		c-0.994,0-1.024-1.085-1.024-2.923c0-3.283,2.199-11.508,4.097-15.786c-3.435,0.09-4.488,0.904-5.785,2.079
		c-0.09,0.091-0.21,0.121-0.301,0.121c-0.361,0-0.693-0.542-0.693-1.325c0-0.211,0.03-0.453,0.09-0.694
		c0.663-2.741,6.779-3.585,10.515-3.585h0.06c0.271,0,0.964,0.271,0.964,1.085c0,0.633-0.301,1.717-0.723,2.169
		c-0.512,3.826-3.736,11.177-3.736,17.082C72.959,156.533,71.182,156.835,69.495,156.835z M221.711,148.509
		c-0.81,2.493-5.306,7.965-8.589,7.965c-1.897,0-2.41-1.838-2.41-3.856c0-3.163,0.934-4.579,0.934-6.357
		c0-0.632-0.302-1.084-1.355-1.084c-1.597,0-3.314,3.253-3.796,5.694v0.211c0,1.627,0.633,2.651,0.633,3.494
		c0,0.753-0.542,1.355-2.562,2.14c-0.24,0.091-0.481,0.15-0.692,0.15c-0.994,0-1.325-1.115-1.325-2.953
		c0-0.206,0.001-0.404,0.001-0.605c-1.258,1.997-3.534,4.158-6.267,5.396c-0.963,3.224-1.897,5.935-6.267,5.935
		c-2.591,0-4.789-1.747-4.789-4.007c0-2.53,3.555-2.53,7.983-3.524c0.181-0.663,0.331-1.356,0.481-2.02
		c-0.993,0.935-2.35,1.537-4.278,1.537c-2.172,0-3.815-1.127-4.445-2.979c-1.286,1.571-3.299,2.829-5.284,2.829
		c-2.35,0-3.012-2.562-3.012-5.633c0-1.587,0.242-3.616,0.702-5.387c-0.238,0.059-0.566,0.174-1.021,0.388
		c-0.417,1.426-1.499,2.347-2.767,2.769c1.145,1.205,2.289,2.44,2.289,3.796c0,2.681-2.229,4.218-6.115,4.218
		c-2.711,0-4.315-0.883-5.073-2.041c-1.422,1.113-3.543,1.98-6.585,1.98c-2.712,0-5.333-1.415-5.333-4.699
		c0-0.552,0.035-1.087,0.103-1.607c-1.751,3.635-5.229,6.367-10.634,6.367c-0.935,0-2.019-0.211-3.133-0.543
		c-0.151,0.423-0.694,0.573-1.145,0.573c-1.881,0-2.538-1.795-2.536-3.106c-1.422,1.941-3.764,3.987-6.341,5.155
		c-0.964,3.224-1.898,5.935-6.268,5.935c-2.592,0-4.791-1.747-4.791-4.007c0-2.591,3.706-2.771,8.286-3.855
		c0.21-0.845,0.422-1.718,0.572-2.592c-0.844,1.176-2.109,2.079-4.038,2.079c-2.23,0-3.827-0.757-4.324-2.398
		c-0.438,0.269-0.955,0.44-1.551,0.44c-1.025,0-1.718-0.241-2.2-0.603c-0.693,1.657-2.291,2.952-5.123,2.952
		c-2.353,0-5.026-0.921-5.781-3.835c-0.701,0.786-1.767,1.184-2.924,1.184c-0.693,0-1.326-0.061-1.928-0.181
		c-1.416,1.627-3.404,2.802-5.784,2.802c-3.259,0-5.185-1.467-6.028-3.409c-1.358,1.767-3.696,3.259-5.781,3.259
		c-4.187,0-2.981-5.453-4.187-9.49c-1.054-0.181-1.958-0.844-1.958-1.838c0-0.813,0.964-1.205,2.049-1.205
		c0.512,0,0.964,0.121,1.355,0.361c2.47-2.621,3.646-6.236,5.272-10.062c0.21-0.482,0.903-0.512,1.898-0.512
		c1.144,0,1.536,0.692,1.536,2.108c0,3.555-3.676,8.527-7.05,10.423c1.266,2.682,1.386,6.749,2.893,6.749
		c0.837,0,2.392-1.712,3.476-2.818c0.222-4.354,3.335-8.269,8.241-8.269c2.229,0,4.489,0.905,4.489,1.778
		c0,0.271-0.603,0.481-2.35,0.481c-3.465,0-5.966,2.5-5.966,6.025c0,1.778,1.056,3.194,3.224,3.194c0.874,0,1.627-0.212,2.26-0.603
		c-1.356-0.935-2.14-2.381-2.14-4.188c0-1.776,1.386-3.855,3.977-3.855c1.958,0,2.922,1.415,2.922,3.283
		c0,0.994-0.241,2.078-0.693,3.133h0.182c1.667,0,2.333-0.999,2.87-1.523c0.21-2.447,0.927-5.061,2.009-7.424
		c-1.265-0.542-2.23-1.266-2.23-1.777c0-0.271,0.121-0.542,0.392-0.542c0.724,0,1.688,0.452,2.652,0.663
		c2.048-3.796,4.88-6.628,7.712-6.628c2.772,0,4.279,1.537,4.279,3.524c0,3.707-4.43,5.063-9.039,5.364
		c-0.844,2.079-1.417,4.639-1.417,7.501c0,3.073,1.206,3.614,2.109,3.614c1.386,0,1.778-1.325,1.778-2.53
		c0-1.386-0.994-2.229-1.718-3.043c0.332-1.175,1.446-2.952,2.38-2.952c3.012,0,1.868,6.507,4.127,6.507
		c1.194,0,1.996-2.094,2.583-2.513l0.851-6.947c0.724-0.572,1.899-0.723,2.531-0.723c1.417,0,1.597,1.387,1.597,2.923
		c0,2.38-1.417,4.458-1.417,7.29c0,0.633,0.302,1.085,1.357,1.085c1.566,0,2.259-1.235,2.801-2.832
		c0.633-2.711,1.959-7.199,2.291-8.014c0.271-0.663,0.782-0.844,1.174-0.844c1.205,0,2.32,2.26,2.32,2.983
		c0,1.596-1.355,6.567-2.591,10.635c3.495-2.622,5.682-7.453,7.618-12.198c0,0,0,0,0,0c0.251-0.792,0.503-1.489,0.745-2.022
		c0.452-0.994,1.145-2.109,2.229-2.109c0.331,0,0.693,0.813,0.693,1.626c0,2.41-1.657,6.809-2.199,12.202
		c1.235,0.271,2.44,0.452,3.465,0.452c4.187,0,6.838-4.55,6.838-9.158c0-5.604-2.531-7.11-5.514-7.11
		c-3.163,0-6.869,2.078-8.495,2.078c-0.483,0-0.843-0.089-0.843-0.421c0-1.506,4.971-4.609,9.338-4.609
		c4.971,0,10.092,2.561,10.092,10.394c0,0.798-0.062,1.598-0.188,2.386c1.458-2.799,4.003-4.556,6.714-4.556
		c2.26,0,3.494,1.206,3.494,2.893c0,3.555-3.855,4.037-7.048,5.514v0.753c0,1.656,1.776,2.019,2.892,2.019
		c1.815,0,3.212-0.779,4.264-1.625c0.384-1.294,1.259-2.322,2.031-2.322c1.898,0,0.15,4.729,5.694,4.729
		c-0.994-3.071-4.73-4.006-4.73-7.44c0-2.983,2.561-4.67,5.212-4.67s3.977,1.145,3.977,2.741c0,0.001,0,0.001,0,0.002
		c1.063-1.178,2.182-2.383,2.486-2.592c0.329-0.324,0.689-0.513,1.081-0.513c1.266,0,1.777,2.2,1.777,2.892
		c-0.061,2.712-1.445,6.146-1.445,7.772c0,0.603,0.48,0.935,1.054,0.935c0.789,0,2.253-1.638,3.305-2.718
		c0.249-1.814,0.927-3.639,2.118-5.085c1.385-1.657,3.555-3.224,6.055-3.224c1.145,0,2.741,0.332,3.403,0.693
		c0.302-1.054,0.844-1.325,1.356-1.325c1.206,0,2.32,2.26,2.32,2.983c0,1.626-1.446,6.838-2.681,10.936
		c2.841-2.235,4.351-4.703,5.256-5.576c0.163-2.826,0.678-5.04,2.304-7.499c0.392-0.602,0.783-0.844,1.175-0.844
		c0.844,0,1.657,1.176,2.049,2.079c0.813-0.844,1.957-1.477,3.555-1.477c2.711,0,4.157,1.325,4.157,3.465
		c0,2.923-1.265,5.904-1.265,7.08c0,0.331,0.09,0.512,0.331,0.512c1.175,0,7.883-7.769,8.455-7.769
		C223.685,145.24,222.365,146.495,221.711,148.509z M226.865,143.59c-0.496,0.496-2.066,1.315-2.657,0.725
		c-0.578-0.577,0.12-2.108,0.456-2.443c1.1-1.101,1.789-0.223,2.487,0.476C227.151,142.348,227.604,142.851,226.865,143.59z"/>
	<path d="M189.112,151.081c0,1.175,0.361,2.32,1.718,2.32c1.296,0,2.771-0.904,3.555-3.073c0.392-1.838,1.114-4.55,1.627-6.357
		C192.998,144.393,189.112,146.863,189.112,151.081z"/>
	<path d="M187.998,160.992c0,0.874,1.235,1.326,1.988,1.326c0.904,0,1.656-1.025,2.289-2.44
		C189.354,160.449,187.998,160.36,187.998,160.992z"/>
</g>
</svg>
